{
  "IcoMoonType": "selection",
  "icons": [
    {
      "icon": {
        "paths": [
          "M983.072 216.768l-294.304 296.096 294.304 294.336c12.32 12.288 12.32 32.224 0 44.544l-133.632 133.6c-12.256 12.32-32.192 12.32-44.512 0l-293.824-293.824-292.064 293.824c-12.288 12.32-32.224 12.32-44.544 0l-133.6-133.6c-12.288-12.32-12.288-32.256 0-44.544l292.064-293.824-292.032-292.032c-12.288-12.288-12.288-32.224 0-44.544l133.6-133.6c12.288-12.32 32.224-12.32 44.544 0l291.52 291.52 294.368-296.096c12.32-12.32 32.256-12.32 44.512 0l133.632 133.6c12.256 12.32 12.256 32.256-0.032 44.544z"
        ],
        "attrs": [],
        "isMulticolor": false,
        "isMulticolor2": false,
        "tags": [
          "cancel",
          "close",
          "dismiss"
        ],
        "grid": 16
      },
      "attrs": [],
      "properties": {
        "id": 66,
        "order": 539,
        "prevSize": 32,
        "code": 59648,
        "name": "cancel"
      },
      "setIdx": 0,
      "setId": 3,
      "iconIdx": 65
    },
    {
      "icon": {
        "paths": [
          "M320 576h448v-128h-448v128zM320 832h448v-128h-448v128zM320 192v128h448v-128h-448zM79 448h78v-256h-36l-85 23v50l43-2v185zM189 654c0-36-12-78-96-78-33 0-64 6-83 16l1 66c21-10 42-15 67-15s32 11 32 28c0 26-30 58-110 112v50h192v-67l-91 2c49-30 87-66 87-113l1-1z"
        ],
        "width": 768,
        "attrs": [],
        "isMulticolor": false,
        "isMulticolor2": false,
        "tags": [
          "list-ordered"
        ],
        "defaultCode": 61538,
        "grid": 16
      },
      "attrs": [],
      "properties": {
        "id": 98,
        "order": 538,
        "prevSize": 32,
        "code": 61538,
        "name": "list-ordered"
      },
      "setIdx": 1,
      "setId": 2,
      "iconIdx": 97
    },
    {
      "icon": {
        "paths": [
          "M512 320l-192 192-192-192-128 128 320 320 320-320-128-128z"
        ],
        "width": 640,
        "attrs": [],
        "isMulticolor": false,
        "isMulticolor2": false,
        "tags": [
          "chevron-down"
        ],
        "defaultCode": 61603,
        "grid": 16
      },
      "attrs": [],
      "properties": {
        "id": 493,
        "order": 530,
        "prevSize": 32,
        "name": "chevron-down",
        "code": 61603
      },
      "setIdx": 2,
      "setId": 1,
      "iconIdx": 0
    },
    {
      "icon": {
        "paths": [
          "M128 192l-128 128 192 192-192 192 128 128 320-320-320-320z"
        ],
        "width": 448,
        "attrs": [],
        "isMulticolor": false,
        "isMulticolor2": false,
        "tags": [
          "chevron-right"
        ],
        "defaultCode": 61560,
        "grid": 16
      },
      "attrs": [],
      "properties": {
        "id": 494,
        "order": 531,
        "prevSize": 32,
        "name": "chevron-right",
        "code": 61560
      },
      "setIdx": 2,
      "setId": 1,
      "iconIdx": 1
    },
    {
      "icon": {
        "paths": [
          "M1024 608l-192-192v-288h-128v160l-192-192-512 512v32h128v320h320v-192h128v192h320v-320h128z"
        ],
        "tags": [
          "home",
          "house"
        ],
        "defaultCode": 59650,
        "grid": 16,
        "attrs": []
      },
      "attrs": [],
      "properties": {
        "ligatures": "home3, house3",
        "name": "home3",
        "order": 532,
        "id": 495,
        "prevSize": 32,
        "code": 59650
      },
      "setIdx": 2,
      "setId": 1,
      "iconIdx": 2
    },
    {
      "icon": {
        "paths": [
          "M512 0c-278.748 0-505.458 222.762-511.848 499.974 5.92-241.864 189.832-435.974 415.848-435.974 229.75 0 416 200.576 416 448 0 53.020 42.98 96 96 96s96-42.98 96-96c0-282.77-229.23-512-512-512zM512 1024c278.748 0 505.458-222.762 511.848-499.974-5.92 241.864-189.832 435.974-415.848 435.974-229.75 0-416-200.576-416-448 0-53.020-42.98-96-96-96s-96 42.98-96 96c0 282.77 229.23 512 512 512z"
        ],
        "tags": [
          "spinner",
          "loading",
          "loading-wheel",
          "busy",
          "wait"
        ],
        "defaultCode": 59778,
        "grid": 16,
        "attrs": []
      },
      "attrs": [],
      "properties": {
        "ligatures": "spinner9, loading10",
        "name": "spinner9",
        "order": 533,
        "id": 496,
        "prevSize": 32,
        "code": 59778
      },
      "setIdx": 2,
      "setId": 1,
      "iconIdx": 3
    },
    {
      "icon": {
        "paths": [
          "M992.262 871.396l-242.552-206.294c-25.074-22.566-51.89-32.926-73.552-31.926 57.256-67.068 91.842-154.078 91.842-249.176 0-212.078-171.922-384-384-384-212.076 0-384 171.922-384 384s171.922 384 384 384c95.098 0 182.108-34.586 249.176-91.844-1 21.662 9.36 48.478 31.926 73.552l206.294 242.552c35.322 39.246 93.022 42.554 128.22 7.356s31.892-92.898-7.354-128.22zM384 640c-141.384 0-256-114.616-256-256s114.616-256 256-256 256 114.616 256 256-114.614 256-256 256z"
        ],
        "tags": [
          "search",
          "magnifier",
          "magnifying-glass",
          "inspect",
          "find"
        ],
        "defaultCode": 59782,
        "grid": 16,
        "attrs": []
      },
      "attrs": [],
      "properties": {
        "ligatures": "search, magnifier",
        "name": "search",
        "order": 534,
        "id": 497,
        "prevSize": 32,
        "code": 59782
      },
      "setIdx": 2,
      "setId": 1,
      "iconIdx": 4
    },
    {
      "icon": {
        "paths": [
          "M64 192h896v192h-896zM64 448h896v192h-896zM64 704h896v192h-896z"
        ],
        "tags": [
          "menu",
          "list",
          "options",
          "lines",
          "hamburger"
        ],
        "defaultCode": 59837,
        "grid": 16,
        "attrs": []
      },
      "attrs": [],
      "properties": {
        "ligatures": "menu, list3",
        "name": "menu",
        "order": 535,
        "id": 498,
        "prevSize": 32,
        "code": 59837
      },
      "setIdx": 2,
      "setId": 1,
      "iconIdx": 5
    },
    {
      "icon": {
        "paths": [
          "M320 768v-768h-128v768h-160l224 224 224-224h-160z",
          "M448 0h576v128h-576v-128z",
          "M448 192h448v128h-448v-128z",
          "M448 384h320v128h-320v-128z",
          "M448 576h192v128h-192v-128z"
        ],
        "tags": [
          "sort-amount-desc",
          "arrange"
        ],
        "defaultCode": 59981,
        "grid": 16,
        "attrs": []
      },
      "attrs": [],
      "properties": {
        "ligatures": "sort-amount-desc, arrange6",
        "name": "sort-amount-desc",
        "order": 536,
        "id": 499,
        "prevSize": 32,
        "code": 59981
      },
      "setIdx": 2,
      "setId": 1,
      "iconIdx": 6
    },
    {
      "icon": {
        "paths": [
          "M512 0c-282.77 0-512 71.634-512 160v96l384 384v320c0 35.346 57.306 64 128 64 70.692 0 128-28.654 128-64v-320l384-384v-96c0-88.366-229.23-160-512-160zM94.384 138.824c23.944-13.658 57.582-26.62 97.278-37.488 87.944-24.076 201.708-37.336 320.338-37.336 118.628 0 232.394 13.26 320.338 37.336 39.696 10.868 73.334 23.83 97.28 37.488 15.792 9.006 24.324 16.624 28.296 21.176-3.972 4.552-12.506 12.168-28.296 21.176-23.946 13.658-57.584 26.62-97.28 37.488-87.942 24.076-201.708 37.336-320.338 37.336s-232.394-13.26-320.338-37.336c-39.696-10.868-73.334-23.83-97.278-37.488-15.792-9.008-24.324-16.624-28.298-21.176 3.974-4.552 12.506-12.168 28.298-21.176z"
        ],
        "tags": [
          "filter",
          "funnel"
        ],
        "defaultCode": 59995,
        "grid": 16,
        "attrs": []
      },
      "attrs": [],
      "properties": {
        "ligatures": "filter, funnel",
        "name": "filter",
        "order": 537,
        "id": 500,
        "prevSize": 32,
        "code": 59995
      },
      "setIdx": 2,
      "setId": 1,
      "iconIdx": 7
    },
    {
      "icon": {
        "paths": [
          "M1024 397.050l-353.78-51.408-158.22-320.582-158.216 320.582-353.784 51.408 256 249.538-60.432 352.352 316.432-166.358 316.432 166.358-60.434-352.352 256.002-249.538z"
        ],
        "attrs": [],
        "isMulticolor": false,
        "isMulticolor2": false,
        "tags": [
          "star-full",
          "rate",
          "star",
          "favorite",
          "bookmark"
        ],
        "defaultCode": 59865,
        "grid": 16
      },
      "attrs": [],
      "properties": {
        "ligatures": "star-full, rate3",
        "name": "star-full",
        "id": 501,
        "order": 528,
        "prevSize": 32,
        "code": 59865
      },
      "setIdx": 2,
      "setId": 1,
      "iconIdx": 8
    },
    {
      "icon": {
        "paths": [
          "M755.188 64c-107.63 0-200.258 87.554-243.164 179-42.938-91.444-135.578-179-243.216-179-148.382 0-268.808 120.44-268.808 268.832 0 301.846 304.5 380.994 512.022 679.418 196.154-296.576 511.978-387.206 511.978-679.418 0-148.392-120.43-268.832-268.812-268.832z"
        ],
        "attrs": [],
        "isMulticolor": false,
        "isMulticolor2": false,
        "tags": [
          "heart",
          "like",
          "love",
          "favorite"
        ],
        "defaultCode": 59866,
        "grid": 16
      },
      "attrs": [],
      "properties": {
        "ligatures": "heart, like",
        "name": "heart",
        "id": 502,
        "order": 529,
        "prevSize": 32,
        "code": 59866
      },
      "setIdx": 2,
      "setId": 1,
      "iconIdx": 9
    }
  ],
  "height": 1024,
  "metadata": {
    "name": "icomoon"
  },
  "preferences": {
    "showGlyphs": true,
    "showQuickUse": true,
    "showQuickUse2": true,
    "showSVGs": true,
    "fontPref": {
      "prefix": "icon-",
      "metadata": {
        "fontFamily": "icomoon"
      },
      "metrics": {
        "emSize": 1024,
        "baseline": 6.25,
        "whitespace": 50
      },
      "embed": false
    },
    "imagePref": {
      "prefix": "icon-",
      "png": true,
      "useClassSelector": true,
      "color": 0,
      "bgColor": 16777215,
      "classSelector": ".icon"
    },
    "historySize": 100,
    "showCodes": true,
    "gridSize": 16
  }
}